{
    "titre"     :   "Mistral gagnant.",
    "consigne"  :   "Calculer le prix d'un sachet de bonbons.",
    "opt1"      :   "Nombre de questions : ",
    "opt2"      :   "Nombre d'essais : ",
    "label2"    :   ["un","deux"],
    "opt3"      :   "Temps pour réaliser une question (en secondes)  : ",
    "opt4"      :   "Nombre de distributeurs : ",
    "label4"    :   ["un","deux","trois"],
    "opt5"      :   "Prix des bonbons (minimum 2, maximum 9) "
}