/* XPM */
static char *osmo_xpm[] = {
"32 32 435 2",
"AA	c #FFFFFF",
"BA	c #474018",
"CA	c #373324",
"DA	c #343029",
"EA	c #2D2A27",
"FA	c #2B2826",
"GA	c #312D26",
"HA	c #353123",
"IA	c #403A1B",
"JA	c #554D11",
"KA	c #342F21",
"LA	c #393423",
"MA	c #393635",
"NA	c #666462",
"OA	c #838180",
"PA	c #868584",
"QA	c #7D7C7C",
"RA	c #6C6A6C",
"SA	c #595758",
"TA	c #44413E",
"UA	c #373221",
"VA	c #39341E",
"WA	c #343021",
"XA	c #363331",
"YA	c #5D5959",
"ZA	c #7E7C7B",
"aA	c #898685",
"bA	c #7F7D7C",
"cA	c #696767",
"dA	c #575555",
"eA	c #4D4B4C",
"fA	c #494748",
"gA	c #575657",
"hA	c #696668",
"iA	c #525050",
"jA	c #2F2C26",
"kA	c #453F19",
"lA	c #3D371D",
"mA	c #3C3836",
"nA	c #616060",
"oA	c #666464",
"pA	c #706E6D",
"qA	c #82807E",
"rA	c #747271",
"sA	c #626060",
"tA	c #514F4F",
"uA	c #3F3D3E",
"vA	c #2E2C2E",
"wA	c #282628",
"xA	c #2D2B2D",
"yA	c #565456",
"zA	c #646263",
"0A	c #383431",
"1A	c #3C371D",
"2A	c #3B3834",
"3A	c #545252",
"4A	c #636160",
"5A	c #817F7D",
"6A	c #5E5C5C",
"7A	c #4D4B4B",
"8A	c #3B393A",
"9A	c #2A282A",
"+A	c #424142",
"/A	c #6A696A",
"AB	c #35322F",
"BB	c #373220",
"CB	c #292626",
"DB	c #332F29",
"EB	c #4A4848",
"FB	c #454344",
"GB	c #848281",
"HB	c #6D6B6A",
"IB	c #5A5858",
"JB	c #494747",
"KB	c #373537",
"LB	c #484548",
"MB	c #5F5E5E",
"NB	c #363123",
"OB	c #37321F",
"PB	c #3F3C3A",
"QB	c #4F4D4E",
"RB	c #777576",
"SB	c #817F7F",
"TB	c #878483",
"UB	c #8F8D8D",
"VB	c #8C8B8A",
"WB	c #747373",
"XB	c #4E4C4D",
"YB	c #333133",
"ZB	c #5C5A5B",
"aB	c #464240",
"bB	c #3C361D",
"cB	c #322E23",
"dB	c #444243",
"eB	c #545153",
"fB	c #6C6A6A",
"gB	c #595656",
"hB	c #2F2B2A",
"iB	c #37322E",
"jB	c #3E3A37",
"kB	c #747374",
"lB	c #595759",
"mB	c #323032",
"nB	c #3B393B",
"oB	c #4D4C4D",
"pB	c #4D4B4D",
"qB	c #545253",
"rB	c #2D2925",
"sB	c #2D2A2A",
"tB	c #474545",
"uB	c #36312D",
"vB	c #A78E5F",
"wB	c #C6A86D",
"xB	c #C0A36A",
"yB	c #968057",
"zB	c #3D3730",
"0B	c #373431",
"1B	c #4D4A4C",
"2B	c #565455",
"3B	c #4A484A",
"4B	c #504E50",
"5B	c #666465",
"6B	c #4C4B4C",
"7B	c #686868",
"8B	c #615F61",
"9B	c #343024",
"+B	c #2C2825",
"/B	c #4D4537",
"AC	c #37322D",
"BC	c #B29864",
"CC	c #C4A66C",
"DC	c #816F4E",
"EC	c #312C29",
"FC	c #312E2E",
"GC	c #474547",
"HC	c #4E4C4E",
"IC	c #302E2E",
"JC	c #2C2827",
"KC	c #3C3A3A",
"LC	c #636263",
"MC	c #302C28",
"NC	c #2F2B24",
"OC	c #B69E6B",
"PC	c #C3A770",
"QC	c #B49965",
"RC	c #C7A86E",
"SC	c #D1B57F",
"TC	c #DABF8E",
"UC	c #E2C99B",
"VC	c #DBC190",
"WC	c #CFB27C",
"XC	c #BA9E68",
"YC	c #655741",
"ZC	c #2C2928",
"aC	c #312D2A",
"bC	c #403930",
"cC	c #A0895C",
"dC	c #39332E",
"eC	c #343232",
"fC	c #2D2927",
"gC	c #675B12",
"hC	c #E0C37F",
"iC	c #D0B277",
"jC	c #C8AB71",
"kC	c #DCC08D",
"lC	c #E1C696",
"mC	c #E3C99A",
"nC	c #E3CA9C",
"oC	c #E3CA9B",
"pC	c #E2C898",
"qC	c #DDC18F",
"rC	c #D3B680",
"sC	c #CBAD73",
"tC	c #BEA269",
"uC	c #9F885B",
"vC	c #A38B5D",
"wC	c #C2A46B",
"xC	c #C6A76D",
"yC	c #B59860",
"zC	c #3D362C",
"0C	c #3A3520",
"1C	c #665B12",
"2C	c #CBB16D",
"3C	c #D4B77A",
"4C	c #D1B37C",
"5C	c #DABD89",
"6C	c #DDC18E",
"7C	c #DEC391",
"8C	c #DFC492",
"9C	c #DEC392",
"+C	c #DBBF8B",
"/C	c #D8BB85",
"AD	c #D5B67F",
"BD	c #D2B177",
"CD	c #CEAC70",
"DD	c #CAA767",
"ED	c #C6A261",
"FD	c #C29B56",
"GD	c #BF9750",
"HD	c #967B33",
"ID	c #655A10",
"JD	c #60560C",
"KD	c #AE9753",
"LD	c #DABE81",
"MD	c #D3B37A",
"ND	c #D6B881",
"OD	c #D8BA85",
"PD	c #D9BC87",
"QD	c #DABD88",
"RD	c #D9BB86",
"SD	c #D7B982",
"TD	c #D5B67D",
"UD	c #D2B278",
"VD	c #CFAD71",
"WD	c #CBA86A",
"XD	c #C7A362",
"YD	c #C49E5A",
"ZD	c #BF9852",
"aD	c #816C23",
"bD	c #766921",
"cD	c #E4C88D",
"dD	c #D2B277",
"eD	c #D4B47C",
"fD	c #D5B67E",
"gD	c #D4B57D",
"hD	c #D3B379",
"iD	c #D1B075",
"jD	c #C8A463",
"kD	c #C49F5C",
"lD	c #C19A54",
"mD	c #BA944D",
"nD	c #675B11",
"oD	c #AC9755",
"pD	c #DFC288",
"qD	c #CEAC6F",
"rD	c #CFAE72",
"sD	c #D0AF74",
"tD	c #D0B075",
"uD	c #D0AF73",
"vD	c #CEAD70",
"wD	c #CCAA6C",
"xD	c #CAA768",
"yD	c #C19A55",
"zD	c #836E25",
"0D	c #655910",
"1D	c #655A11",
"2D	c #D1B77C",
"3D	c #D5B77B",
"4D	c #CBA869",
"5D	c #CCA96B",
"6D	c #CAA667",
"7D	c #C8A464",
"8D	c #C6A15F",
"9D	c #A3843C",
"+D	c #64590F",
"/D	c #232646",
"AE	c #323339",
"BE	c #736723",
"CE	c #CBB27A",
"DE	c #D7B980",
"EE	c #C9A565",
"FE	c #C7A361",
"GE	c #C6A260",
"HE	c #C5A05E",
"IE	c #C49E5B",
"JE	c #C29B57",
"KE	c #C09853",
"LE	c #C09852",
"ME	c #695E18",
"NE	c #535353",
"OE	c #212848",
"PE	c #325478",
"QE	c #393B42",
"RE	c #716624",
"SE	c #A49255",
"TE	c #D4B882",
"UE	c #CEAD72",
"VE	c #C9A667",
"WE	c #C39D58",
"XE	c #C39D5A",
"YE	c #C39D59",
"ZE	c #C29C58",
"aE	c #86722C",
"bE	c #757570",
"cE	c #2C3555",
"dE	c #222849",
"eE	c #3F7096",
"fE	c #5E8AB1",
"gE	c #174468",
"hE	c #3A435B",
"iE	c #938C60",
"jE	c #776B27",
"kE	c #988647",
"lE	c #AB9457",
"mE	c #BBA065",
"nE	c #C4A568",
"oE	c #B19452",
"pE	c #9B813C",
"qE	c #85722C",
"rE	c #6C6019",
"sE	c #968E62",
"tE	c #95959D",
"uE	c #2C3353",
"vE	c #416E99",
"wE	c #346591",
"xE	c #22294A",
"yE	c #38668C",
"zE	c #5C89AF",
"0E	c #07587E",
"1E	c #00537A",
"2E	c #1A3658",
"3E	c #60687D",
"4E	c #C7C4B6",
"5E	c #A8A384",
"6E	c #8E8655",
"7E	c #756A2A",
"8E	c #635911",
"9E	c #ACACB4",
"+E	c #2D3150",
"/E	c #2E5D8A",
"AF	c #226090",
"BF	c #356D9B",
"CF	c #305B85",
"DF	c #212949",
"EF	c #2D5579",
"FF	c #668EB5",
"GF	c #0D5A82",
"HF	c #025177",
"IF	c #232F50",
"JF	c #9699A4",
"KF	c #DCDBDA",
"LF	c #BDBCC1",
"MF	c #303352",
"NF	c #3A608A",
"OF	c #306897",
"PF	c #215F90",
"QF	c #15588A",
"RF	c #376F9C",
"SF	c #2D4B73",
"TF	c #2D3C5E",
"UF	c #688FB6",
"VF	c #196189",
"WF	c #064B71",
"XF	c #272E4D",
"YF	c #BEBEC2",
"ZF	c #CAC9CB",
"aF	c #383B58",
"bF	c #466187",
"cF	c #40719F",
"dF	c #316897",
"eF	c #125688",
"fF	c #175A8B",
"gF	c #386F9C",
"hF	c #262E50",
"iF	c #21294A",
"jF	c #5C83A9",
"kF	c #2C6D94",
"lF	c #0D4266",
"mF	c #333B58",
"nF	c #464963",
"oF	c #4F6082",
"pF	c #507AA7",
"qF	c #115688",
"rF	c #2B6796",
"sF	c #2D4B72",
"tF	c #232747",
"uF	c #658CB2",
"vF	c #0E5C83",
"wF	c #5F83AE",
"xF	c #1B5D8E",
"yF	c #33648E",
"zF	c #698FB5",
"0F	c #0A5980",
"1F	c #212849",
"2F	c #6C91B8",
"3F	c #06567D",
"4F	c #376E9D",
"5F	c #222848",
"6F	c #6F93BB",
"7F	c #02547B",
"8F	c #5F83AF",
"9F	c #316898",
"+F	c #225F90",
"/F	c #366E9C",
"AG	c #222747",
"BG	c #6189B0",
"CG	c #4C7FA6",
"DG	c #1A6289",
"EG	c #04557C",
"FG	c #41719F",
"GG	c #135788",
"HG	c #1A5C8C",
"IG	c #326996",
"JG	c #222748",
"KG	c #232C4C",
"LG	c #40668B",
"MG	c #5882A8",
"NG	c #678FB5",
"OG	c #5484AB",
"PG	c #4178A0",
"QG	c #36729A",
"RG	c #2C6C93",
"SG	c #22678D",
"TG	c #6487B2",
"UG	c #5980AC",
"VG	c #4F7CA7",
"WG	c #4576A4",
"XG	c #4073A1",
"YG	c #3C709D",
"ZG	c #35638E",
"aG	c #2B4F78",
"bG	c #242B4D",
"cG	c #242A4A",
"dG	c #304365",
"eG	c #385377",
"fG	c #3A5D81",
"gG	c #3D658A",
"hG	c #426D93",
"iG	c #98ADBE",
"jG	c #A2B5C5",
"kG	c #AAB9C9",
"lG	c #AFBCC9",
"mG	c #B4BECA",
"nG	c #58739B",
"oG	c #4C678D",
"pG	c #40597F",
"qG	c #364B71",
"rG	c #2C3B5E",
"sG	c #242949",
"tG	c #22294B",
"uG	c #232849",
"vG	c #24294A",
"wG	c #272C4D",
"xG	c #262A4A",
"yG	c #242748",
"AAAAAAAAAAAAAAAAAAAAAAAABACADAEAFAGAHAIAJAAAAAAAAAAAAAAAAAAAAAAA",
"AAAAAAAAAAAAAAAAAAAAKALAMANAOAPAQARASATAEAUAVAAAAAAAAAAAAAAAAAAA",
"AAAAAAAAAAAAAAAAAAWAXAYAZAaAbAcAdAeAfAgAhAiAjAkAAAAAAAAAAAAAAAAA",
"AAAAAAAAAAAAAAAAlAmAnAoApAqArAsAtAuAvAwAxAyAzA0A1AAAAAAAAAAAAAAA",
"AAAAAAAAAAAAAAWA2AtA3A4ArA5ApA6A7A8A9AwAwAwA+A/AABBBAAAAAAAAAAAA",
"AAAAAAAAAAAACBDBEBFBdApAOAGBHBIBJBKBwAwAwAwAwALBMBNBAAAAAAAAAAAA",
"AAAAAAAAAAAAOBPBFBQBRBSBTBUBVBWBXBYBwAwAwAwAwAwAZBaBbBAAAAAAAAAA",
"AAAAAAAAAAAAcBdBeBfBgBhBiBhBjB6AkBlBmBwAwAwAnBoBpBqBOBAAAAAAAAAA",
"AAAAAAAAAAAArBsBQBtBuBvBwBxByBzB0B1B/A2B3B4B5B6B7B8B9BAAAAAAAAAA",
"AAAAAAAAAAAA+B/BuBACBCwBwBwBwBCCDCECFCGCHCQBICJCKCLCMCAAAAAAAAAA",
"AAAAAAAAAAAANCOCPCQCRCSCTCUCVCWCRCXCYCZCaCaCbCcCdCeCfCAAAAAAAAAA",
"AAAAAAAAAAAAgChCiCjCkClCmCnCoCpCqCrCsCtCuCvCwCxCyCzC0CAAAAAAAAAA",
"AAAAAAAAAAAA1C2C3C4C5C6C7C8C9CqC+C/CADBDCDDDEDFDGDHDIDAAAAAAAAAA",
"AAAAAAAAAAAAJDKDLDMDNDODPD5CQDRDSDTDUDVDWDXDYDZDGDaDJDAAAAAAAAAA",
"AAAAAAAAAAAAJDbDcDdDUDeDfDADfDgDhDiDCDWDjDkDlDGDmDnDJDAAAAAAAAAA",
"AAAAAAAAAAAAAAIDoDpDqDrDsDiDtDuDvDwDxDXDkDyDGDGDzD0DAAAAAAAAAAAA",
"AAAAAAAAAAAAAAJD1D2D3D4D5D5D5DWD6D7D8DYDlDGDGD9D+DJDAAAAAAAAAAAA",
"AAAAAAAAAAAAAA/DAEBECEDEEEXDFEGEHEIEJEKELEGD9DMENE/DAAAAAAAAAAAA",
"AAAAAAAAAAAA/DOEPEQERESETEUEVEIEWEXEYEZEmDaEREbEcEdE/DAAAAAAAAAA",
"AAAAAAAAAA/DOEeEfEgEhEiEjEkElEmEnEoEpEqErEsEtEuEvEwExE/DAAAAAAAA",
"AAAAAAAA/DOEyEzE0E1E2E3E4E5E6E7E8E7E6E5E4E9E+E/EAFBFCFdE/DAAAAAA",
"AAAAAAAADFEFFFGF1E1EHFIFJFKFKFKFKFKFKFKFLFMFNFOFPFQFRFSFxEAAAAAA",
"AAAAAA/DTFUFVF1E1E1E1EWFXFYFKFKFKFKFKFZFaFbFcFdFPFeFfFgFhF/DAAAA",
"AAAAAAiFjFkF1E1E1E1E1E1ElFmFKFKFKFKFKFnFoFpFcFdFPFeFqFrFsFtFAAAA",
"AAAAAAiFuFvF1E1E1E1E1E1E1E/DKFKFKFKFKF/DwFpFcFdFPFeFqFxFyFxEAAAA",
"AAAAAADFzF0F1E1E1E1E1E1E1E/DKFKFKFKFKF/DwFpFcFdFPFeFqFqFRF/DAAAA",
"AAAAAA1F2F3F1E1E1E1E1E1E1E/DKFKFKFKFKF/DwFpFcFdFPFeFqFqF4F/DAAAA",
"AAAAAA5F6F7F1E1E1E1E1E1E1E/DKFKFKFKFKF/D8FpFcF9F+FeFqFqF/F/DAAAA",
"AAAAAAAGBGCGDGEG1E1E1E1E1E/DKFKFKFKFKF/D8FpFFG9F+FGGHGrFIG/DAAAA",
"AAAAAAJGKGLGMGNGOGPGQGRGSG/DKFKFKFKFKF/DTGUGVGWGXGYGZGaGbGdEAAAA",
"AAAAAAAA/DJGiFcGdGeGfGgGhG/DiGjGkGlGmG/DnGoGpGqGrGsGtGdE/DAAAAAA",
"AAAAAAAAAAAAAA/D/D/D/D/DDFJGxEuGtFvGwGxGwGyG/D/D/D/DAAAAAAAAAAAA"
};
