{
    "titre"     :   "Les éléphants",
    "consigne"  :   "Placer tous les éléphants sur les radeaux sans les faire couler.",
    "p1"        :   "Place tous les éléphants sur les radeaux.",
    "p2"        :   "Attention ! Chaque radeau ne supporte pas plus de 5000 kg !",
    "p3"        :   "Tu dois placer tous les éléphants&nbsp;!",
    "opt1"      :   "Nombre de questions : ",
    "opt2"      :   "Nombre d'essais : ",
    "label2"    :   ["un","deux"],
    "opt3"      :   "Temps pour réaliser l'exercice (en secondes)  : "
}