{
    "titre"     :   "L'Araignée",
    "consigne"  :   "Clique sur les nombres de la table de multiplication demandée pour guider la coccinelle vers la mouche.",
	"rappel1"	: 	"Clique sur les nombres de la table de ",
	"rappel2"	: 	" parmi les nombres bleus proposés.",
    "opt1"      :   "Nombre de questions : ",
    "opt2"      :   "Longueur du chemin : ",
    "opt3"      :   "Temps pour réaliser l'exercice (en secondes)  : ",
    "opt4"      :   "Tables de multiplication testées : ",
    "opt5"      :   "Nombre de branches : ",
    "opt6"      :   "Nombre de polygones : ",
    "opt7"      :   "Facteur à ne pas dépasser : "
	
}